{
    "rotulo": "Administrador",
    "icone": "pi-cog",
    "rota": null,
    "menus_1": [
        {
            "rotulo": "Painel de Gerenciamento",
            "icone": "pi-key",
            "rota": "/admin/painel_gerenciamento",
            "menus_2": null
        },
        {
            "rotulo": "Parâmetros",
            "icone": "pi-sliders-h",
            "rota": null,
            "menus_2": [
                {
                    "rotulo": "Estado civil",
                    "icone": "pi-box",
                    "rota": "/admin/ecivil"
                },
                {
                    "rotulo": "Grau de instrução",
                    "icone": "pi-box",
                    "rota": "/admin/grau_instrucao"
                },
                {
                    "rotulo": "Tipo de anotação",
                    "icone": "pi-box",
                    "rota": "/admin/tipo_anotacao"
                },
                {
                    "rotulo": "Tipo de documento",
                    "icone": "pi-box",
                    "rota": "/admin/tipo_documento"
                },
                {
                    "rotulo": "Tipo de logradouro",
                    "icone": "pi-box",
                    "rota": "/admin/tipo_logradouro"
                }
            ]
        },
        {
            "rotulo": "Aprovadores de Férias",
            "icone": "pi-check-square",
            "rota": "/admin/aprovadores_ferias",
            "menus_2": null
        }
    ]
}