{
    "rotulo": "Meritocracia",
    "icone": "pi-sitemap",
    "rota": null,
    "menus_1": [
        {
            "rotulo": "Importar dados",
            "icone": "pi-file",
            "rota": "/meritocracia/importar",
            "menus_2": null
        },
        {
            "rotulo": "Importar Reuniões",
            "icone": "pi-file",
            "rota": "/meritocracia/importar-reunioes",
            "menus_2": null
        },
        {
            "rotulo": "Importar Avaliação de Chefia",
            "icone": "pi-file",
            "rota": "/meritocracia/importar-avaliacao-chefia",
            "menus_2": null
        }
    ]
}